%YAML 1.1
%TAG !u! tag:unity3d.com,2011:
--- !u!687078895 &4343727234628468602
SpriteAtlas:
  m_ObjectHideFlags: 0
  m_CorrespondingSourceObject: {fileID: 0}
  m_PrefabInstance: {fileID: 0}
  m_PrefabAsset: {fileID: 0}
  m_Name: mascots
  m_EditorData:
    serializedVersion: 2
    textureSettings:
      serializedVersion: 2
      anisoLevel: 1
      compressionQuality: 50
      maxTextureSize: 2048
      textureCompression: 0
      filterMode: 1
      generateMipMaps: 0
      readable: 0
      crunchedCompression: 0
      sRGB: 1
    platformSettings: []
    packingSettings:
      serializedVersion: 2
      padding: 8
      blockOffset: 1
      allowAlphaSplitting: 0
      enableRotation: 1
      enableTightPacking: 0
      enableAlphaDilation: 0
    secondaryTextureSettings: {}
    variantMultiplier: 1
    packables:
    - {fileID: 2800000, guid: f3e1b040d3a36124c93e7972415240b4, type: 3}
    - {fileID: 2800000, guid: 6c6db8d40d605a44eaad0ac8d79375b9, type: 3}
    - {fileID: 2800000, guid: c601f7859d6574547803c3ed5585a37f, type: 3}
    - {fileID: 2800000, guid: ef5f8d237e04b2246be46b833e8e7fb6, type: 3}
    - {fileID: 2800000, guid: 740222db043b9e84989c8ee7c1898021, type: 3}
    - {fileID: 2800000, guid: db24f393ff64b964e8ec18311f8d6e64, type: 3}
    - {fileID: 2800000, guid: b88bd62029001e441871a6267d77a442, type: 3}
    - {fileID: 2800000, guid: 9e425390a1fcfe541be7116b98db2f95, type: 3}
    - {fileID: 2800000, guid: 40aaab43af339af4e9555cbe6e0774f3, type: 3}
    - {fileID: 2800000, guid: 5eaa9d1a50f7b9c4c93bc9ab236f4b2f, type: 3}
    - {fileID: 2800000, guid: 362345af3fff9fb4482f90df00cfe229, type: 3}
    - {fileID: 2800000, guid: 740136e1e7eac824885e837dd194b374, type: 3}
    - {fileID: 2800000, guid: a9e4cf57606048e489bc9b6c07b37560, type: 3}
    - {fileID: 2800000, guid: 3ed8d9795011dfa4690bb2990f6209b2, type: 3}
    - {fileID: 2800000, guid: 864fd2ace6668fc4488f3fc734f6f374, type: 3}
    - {fileID: 2800000, guid: 9e9e3fa8a3e33e54ebab9f56e026e50f, type: 3}
    - {fileID: 2800000, guid: d508eb84770b01e4a9889175a3e32fa1, type: 3}
    - {fileID: 2800000, guid: 300360a02544e164fb942d21bb50d816, type: 3}
    - {fileID: 2800000, guid: ea9089c54adfae14a9f20c2b02b1aef9, type: 3}
    - {fileID: 2800000, guid: 6e1487039f67c54489503a768590a23c, type: 3}
    - {fileID: 2800000, guid: b3bc2f4f0929e80449c00ba3a4496b18, type: 3}
    - {fileID: 2800000, guid: c58f95b2f8f21f848be47e97bee9e1b6, type: 3}
    - {fileID: 2800000, guid: 96d8d42a69fa739489d3043e3d76be3d, type: 3}
    - {fileID: 2800000, guid: e67cf8048b6a713489f9f13773248b73, type: 3}
    - {fileID: 2800000, guid: 35a3414c7020104459fe75f57d4fc245, type: 3}
    - {fileID: 2800000, guid: d76c1487909917b42bf24023414d7da7, type: 3}
    - {fileID: 2800000, guid: 29889fe5668f96a48ad97dfad953253f, type: 3}
    - {fileID: 2800000, guid: 17278b9875c7a1e4cbf480d14b898907, type: 3}
    - {fileID: 2800000, guid: 654a7f17533ddd444aeaa56755856b65, type: 3}
    - {fileID: 2800000, guid: 142caa8c540f1ae42a07211f4d68ec65, type: 3}
    - {fileID: 2800000, guid: a999f4f32068ae4488bc65c23c91d10c, type: 3}
    - {fileID: 2800000, guid: 344a76cc3d1b934438aee37059dec8ba, type: 3}
    - {fileID: 2800000, guid: cfa28f84daad1284b903adcbc9d6b7c9, type: 3}
    - {fileID: 2800000, guid: d0f768089b089b54d80c5f779e0fcdae, type: 3}
    - {fileID: 2800000, guid: 4f4a08067bc3c1a42bebdaa4a36e2460, type: 3}
    - {fileID: 2800000, guid: b99e765dc88e3c546850ef48f835ba91, type: 3}
    - {fileID: 2800000, guid: 8b2017fad74ecce4996d690494b0a1d9, type: 3}
    - {fileID: 2800000, guid: fd917b8cb17b25b4cbcb7373e847caa3, type: 3}
    bindAsDefault: 0
    isAtlasV2: 0
    cachedData: {fileID: 0}
  m_MasterAtlas: {fileID: 0}
  m_PackedSprites:
  - {fileID: 21300000, guid: b88bd62029001e441871a6267d77a442, type: 3}
  - {fileID: 21300000, guid: f3e1b040d3a36124c93e7972415240b4, type: 3}
  - {fileID: 21300000, guid: 9e425390a1fcfe541be7116b98db2f95, type: 3}
  - {fileID: 21300000, guid: 300360a02544e164fb942d21bb50d816, type: 3}
  - {fileID: 21300000, guid: 740136e1e7eac824885e837dd194b374, type: 3}
  - {fileID: 21300000, guid: c58f95b2f8f21f848be47e97bee9e1b6, type: 3}
  - {fileID: 21300000, guid: 6e1487039f67c54489503a768590a23c, type: 3}
  - {fileID: 21300000, guid: ef5f8d237e04b2246be46b833e8e7fb6, type: 3}
  - {fileID: 21300000, guid: 40aaab43af339af4e9555cbe6e0774f3, type: 3}
  - {fileID: 21300000, guid: db24f393ff64b964e8ec18311f8d6e64, type: 3}
  - {fileID: 21300000, guid: a999f4f32068ae4488bc65c23c91d10c, type: 3}
  - {fileID: 21300000, guid: e67cf8048b6a713489f9f13773248b73, type: 3}
  - {fileID: 21300000, guid: d508eb84770b01e4a9889175a3e32fa1, type: 3}
  - {fileID: 21300000, guid: cfa28f84daad1284b903adcbc9d6b7c9, type: 3}
  - {fileID: 21300000, guid: 6c6db8d40d605a44eaad0ac8d79375b9, type: 3}
  - {fileID: 21300000, guid: c601f7859d6574547803c3ed5585a37f, type: 3}
  - {fileID: 21300000, guid: ea9089c54adfae14a9f20c2b02b1aef9, type: 3}
  - {fileID: 21300000, guid: 29889fe5668f96a48ad97dfad953253f, type: 3}
  - {fileID: 21300000, guid: 4f4a08067bc3c1a42bebdaa4a36e2460, type: 3}
  - {fileID: 21300000, guid: 654a7f17533ddd444aeaa56755856b65, type: 3}
  - {fileID: 21300000, guid: a9e4cf57606048e489bc9b6c07b37560, type: 3}
  - {fileID: 21300000, guid: d76c1487909917b42bf24023414d7da7, type: 3}
  - {fileID: 21300000, guid: d0f768089b089b54d80c5f779e0fcdae, type: 3}
  - {fileID: 21300000, guid: 17278b9875c7a1e4cbf480d14b898907, type: 3}
  - {fileID: 21300000, guid: 9e9e3fa8a3e33e54ebab9f56e026e50f, type: 3}
  - {fileID: 21300000, guid: 3ed8d9795011dfa4690bb2990f6209b2, type: 3}
  - {fileID: 21300000, guid: 5eaa9d1a50f7b9c4c93bc9ab236f4b2f, type: 3}
  - {fileID: 21300000, guid: 96d8d42a69fa739489d3043e3d76be3d, type: 3}
  - {fileID: 21300000, guid: 8b2017fad74ecce4996d690494b0a1d9, type: 3}
  - {fileID: 21300000, guid: 740222db043b9e84989c8ee7c1898021, type: 3}
  - {fileID: 21300000, guid: 35a3414c7020104459fe75f57d4fc245, type: 3}
  - {fileID: 21300000, guid: 142caa8c540f1ae42a07211f4d68ec65, type: 3}
  - {fileID: 21300000, guid: fd917b8cb17b25b4cbcb7373e847caa3, type: 3}
  - {fileID: 21300000, guid: 864fd2ace6668fc4488f3fc734f6f374, type: 3}
  - {fileID: 21300000, guid: 344a76cc3d1b934438aee37059dec8ba, type: 3}
  - {fileID: 21300000, guid: b99e765dc88e3c546850ef48f835ba91, type: 3}
  - {fileID: 21300000, guid: b3bc2f4f0929e80449c00ba3a4496b18, type: 3}
  - {fileID: 21300000, guid: 362345af3fff9fb4482f90df00cfe229, type: 3}
  m_PackedSpriteNamesToIndex:
  - 5_Mascot
  - 1_Mascot1
  - 6_Mascot
  - 15_Mascot1
  - 10_Mascot
  - 21_Mascot
  - 18_Mascot
  - 2_Mascot2
  - 7_Mascot
  - 4_Mascot
  - 30_Mascot
  - 23_Mascot
  - 15_Mascot
  - 32_Mascot
  - 1_Mascot2
  - 2_Mascot1
  - 17_Mascot1
  - 26_Mascot
  - 34_Mascot1
  - 28_Mascot
  - 11_Mascot
  - 25_Mascot
  - 33_Mascot1
  - 27_Mascot
  - 14_Mascot
  - 12_Mascot
  - 8_Mascot
  - 22_Mascot
  - 43_Mascot
  - 3_Mascot
  - 24_Mascot
  - 29_Mascot
  - 43_Mascot2
  - 13_Mascot
  - 31_Mascot
  - mascot
  - 19_Mascot
  - 9_Mascot
  m_RenderDataMap: {}
  m_Tag: mascots
  m_IsVariant: 0
