0001-0047 loop Fight Idle  
0049-0071 loop Run         
0073-0095 loop Walk        
0097-0141 loop Attack Ground   
0142-0159 loop Hit Land Left   
0160-0177 loop Hit Land Right  
0178-0195 loop Hit Land Front  
0196-0218 loop Hit Land Back
0219-0234 loop Land Death      
0236-0298 loop Idle            
0299-0349 loop Nod
0350-0361 start Threatening Finger
0362-0417 Threatening Finger
0418-0429 End Threatening Finger
0430-0499 Go to Sleep
0500-0559 loop Sleep
0560-0609 Wake up
0611-0689 loop Idle01        
0690-0732 Start to Fly       
0733-0746 loop Fly              
0747-0789 Landing
0791-0829 loop Soaring        
0830-0859 loop Attack Air    
0860-0889 loop Hit Right Air 
0890-0919 loop Hit Left Air  
0920-0949 loop Hit Front Air 
0950-0969 Death Air          
0971-0985 loop Run Fast   
0987-1029 loop Catch Prey
1031-1049 loop Flying With Victim
1051-1081 Catch Prey Beak