%YAML 1.1
%TAG !u! tag:unity3d.com,2011:
--- !u!687078895 &4343727234628468602
SpriteAtlas:
  m_ObjectHideFlags: 0
  m_CorrespondingSourceObject: {fileID: 0}
  m_PrefabInstance: {fileID: 0}
  m_PrefabAsset: {fileID: 0}
  m_Name: 23_poi
  m_EditorData:
    serializedVersion: 2
    textureSettings:
      serializedVersion: 2
      anisoLevel: 1
      compressionQuality: 50
      maxTextureSize: 2048
      textureCompression: 0
      filterMode: 1
      generateMipMaps: 0
      readable: 0
      crunchedCompression: 0
      sRGB: 1
    platformSettings: []
    packingSettings:
      serializedVersion: 2
      padding: 4
      blockOffset: 1
      allowAlphaSplitting: 0
      enableRotation: 1
      enableTightPacking: 1
      enableAlphaDilation: 0
    secondaryTextureSettings: {}
    variantMultiplier: 1
    packables:
    - {fileID: 2800000, guid: f1e49a8dd16166c4fb475108f1a02186, type: 3}
    - {fileID: 2800000, guid: a73981f8d06bdb4479e779c56a023a47, type: 3}
    - {fileID: 2800000, guid: 1af6dfc1f83044642b609485818782d9, type: 3}
    - {fileID: 2800000, guid: 981bdc75297eb6c4d8df6f1eab4a4170, type: 3}
    - {fileID: 2800000, guid: 53b9a0be106010e4fa1a5534b080e227, type: 3}
    - {fileID: 2800000, guid: 1a0a2fdfc1e63f243ab597fd073a7406, type: 3}
    - {fileID: 2800000, guid: 85e7495a219a7f343b12cec0bf5d62d2, type: 3}
    - {fileID: 2800000, guid: a9f563c2ce7d99f4c8074e8a4498cae0, type: 3}
    - {fileID: 2800000, guid: f280698273d09fd4b82c4bba13a897b6, type: 3}
    - {fileID: 2800000, guid: 49582198daebf5f469755d8c19a250a2, type: 3}
    bindAsDefault: 0
    isAtlasV2: 0
    cachedData: {fileID: 0}
  m_MasterAtlas: {fileID: 0}
  m_PackedSprites:
  - {fileID: 21300000, guid: 1af6dfc1f83044642b609485818782d9, type: 3}
  - {fileID: 21300000, guid: f280698273d09fd4b82c4bba13a897b6, type: 3}
  - {fileID: 21300000, guid: a9f563c2ce7d99f4c8074e8a4498cae0, type: 3}
  - {fileID: 21300000, guid: 981bdc75297eb6c4d8df6f1eab4a4170, type: 3}
  - {fileID: 21300000, guid: 49582198daebf5f469755d8c19a250a2, type: 3}
  - {fileID: 21300000, guid: a73981f8d06bdb4479e779c56a023a47, type: 3}
  - {fileID: 21300000, guid: 85e7495a219a7f343b12cec0bf5d62d2, type: 3}
  - {fileID: 21300000, guid: f1e49a8dd16166c4fb475108f1a02186, type: 3}
  - {fileID: 21300000, guid: 53b9a0be106010e4fa1a5534b080e227, type: 3}
  - {fileID: 21300000, guid: 1a0a2fdfc1e63f243ab597fd073a7406, type: 3}
  m_PackedSpriteNamesToIndex:
  - 3rathaus
  - 9hof
  - 8heimat
  - 4mosaik
  - 10kunst
  - 2brunnenmus
  - 7roemerbr
  - 1burg
  - 5tempel
  - 6radio
  m_RenderDataMap: {}
  m_Tag: 23_poi
  m_IsVariant: 0
