%YAML 1.1
%TAG !u! tag:unity3d.com,2011:
--- !u!114 &11400000
MonoBehaviour:
  m_ObjectHideFlags: 0
  m_CorrespondingSourceObject: {fileID: 0}
  m_PrefabInstance: {fileID: 0}
  m_PrefabAsset: {fileID: 0}
  m_GameObject: {fileID: 0}
  m_Enabled: 1
  m_EditorHideFlags: 0
  m_Script: {fileID: 11500000, guid: bbb281ee3bf0b054c82ac2347e9e782c, type: 3}
  m_Name: 13 Dresden
  m_EditorClassIdentifier: 
  m_GroupName: 13 Dresden
  m_Data:
    m_SerializedData: []
  m_GUID: 34e86b4d8d3e6d24f90d3a2befacd44f
  m_SerializeEntries:
  - m_GUID: 110b9406e8d2a894185ce390fea718ec
    m_Address: Assets/_Content/13/AUDIO/zwinger.mp3
    m_ReadOnly: 0
    m_SerializedLabels:
    - 13
  - m_GUID: 0b7c4ed758b9405438ba2ee79caf84f8
    m_Address: Assets/_Content/13/AUDIO/fuerstenzug.mp3
    m_ReadOnly: 0
    m_SerializedLabels:
    - 13
  - m_GUID: cd56aa1168eb1f040b0e4b2ed94b04d5
    m_Address: Assets/_Content/13/AUDIO/frauenkirche.mp3
    m_ReadOnly: 0
    m_SerializedLabels:
    - 13
  - m_GUID: 55451992dbe66b244916fb3c5543dbec
    m_Address: Assets/_Content/13/AUDIO/mhmdb.mp3
    m_ReadOnly: 0
    m_SerializedLabels:
    - 13
  - m_GUID: 5e5e57f268ad0f348af8f20ecdcf184c
    m_Address: Assets/_Content/13/IMAGE/13_poi.spriteatlas
    m_ReadOnly: 0
    m_SerializedLabels:
    - 13
  m_ReadOnly: 0
  m_Settings: {fileID: 11400000, guid: 43ffcd0bf06d2594b86c4c30ec9e8358, type: 2}
  m_SchemaSet:
    m_Schemas:
    - {fileID: 11400000, guid: c67f2508aa09f4f48bbc28e6a9d5b8c6, type: 2}
    - {fileID: 11400000, guid: ca5c004e0cea8094e80604e51c650f34, type: 2}
