%YAML 1.1
%TAG !u! tag:unity3d.com,2011:
--- !u!114 &11400000
MonoBehaviour:
  m_ObjectHideFlags: 0
  m_CorrespondingSourceObject: {fileID: 0}
  m_PrefabInstance: {fileID: 0}
  m_PrefabAsset: {fileID: 0}
  m_GameObject: {fileID: 0}
  m_Enabled: 1
  m_EditorHideFlags: 0
  m_Script: {fileID: 11500000, guid: bbb281ee3bf0b054c82ac2347e9e782c, type: 3}
  m_Name: 18 Kassel
  m_EditorClassIdentifier: 
  m_GroupName: 18 Kassel
  m_Data:
    m_SerializedData: []
  m_GUID: 88dfa4fa50d24cb4fb72ae726d250352
  m_SerializeEntries:
  - m_GUID: 1ad0de39e57473b4481b928804cadde2
    m_Address: Assets/_Content/18/IMAGE/18_poi.spriteatlas
    m_ReadOnly: 0
    m_SerializedLabels:
    - 18
  m_ReadOnly: 0
  m_Settings: {fileID: 11400000, guid: 43ffcd0bf06d2594b86c4c30ec9e8358, type: 2}
  m_SchemaSet:
    m_Schemas:
    - {fileID: 11400000, guid: 1781bcbcc0411e249a5e3c14433080f3, type: 2}
    - {fileID: 11400000, guid: bff2df13d36f25e41960e35cd562d340, type: 2}
