%YAML 1.1
%TAG !u! tag:unity3d.com,2011:
--- !u!114 &11400000
MonoBehaviour:
  m_ObjectHideFlags: 0
  m_CorrespondingSourceObject: {fileID: 0}
  m_PrefabInstance: {fileID: 0}
  m_PrefabAsset: {fileID: 0}
  m_GameObject: {fileID: 0}
  m_Enabled: 1
  m_EditorHideFlags: 0
  m_Script: {fileID: 11500000, guid: bbb281ee3bf0b054c82ac2347e9e782c, type: 3}
  m_Name: 25 Halle
  m_EditorClassIdentifier: 
  m_GroupName: 25 Halle
  m_Data:
    m_SerializedData: []
  m_GUID: b8bff958818862347b2b42f272d9e017
  m_SerializeEntries:
  - m_GUID: daed2705c33a50144b9a5b403965ee21
    m_Address: Assets/_Content/25/IMAGE/25_poi.spriteatlas
    m_ReadOnly: 0
    m_SerializedLabels:
    - 25
  - m_GUID: 1c10c9cecc095be43981ef48a99f3b26
    m_Address: Assets/_Content/25/AUDIO/burg.mp3
    m_ReadOnly: 0
    m_SerializedLabels:
    - 25
  - m_GUID: 72d4ae7f7a4bebe4fbb57f0ff9c457c4
    m_Address: Assets/_Content/25/AUDIO/zoo.mp3
    m_ReadOnly: 0
    m_SerializedLabels:
    - 25
  - m_GUID: ce80d2f4477c2cd4c98e3f7e0b49a089
    m_Address: Assets/_Content/25/AUDIO/franke.mp3
    m_ReadOnly: 0
    m_SerializedLabels:
    - 25
  - m_GUID: cfb83aca0cc4e784a99550c48b4cc1e8
    m_Address: Assets/_Content/25/AUDIO/moritzburg.mp3
    m_ReadOnly: 0
    m_SerializedLabels:
    - 25
  - m_GUID: 774c3ef1c48d31e44bc7ff83fe454aa8
    m_Address: Assets/_Content/25/AUDIO/leopoldina.mp3
    m_ReadOnly: 0
    m_SerializedLabels:
    - 25
  - m_GUID: 7865f24aa24674c46abccba55cb9a280
    m_Address: Assets/_Content/25/AUDIO/oper.mp3
    m_ReadOnly: 0
    m_SerializedLabels:
    - 25
  - m_GUID: 3743baea68331914d976dc850a583780
    m_Address: Assets/_Content/25/AUDIO/graseweghaus.mp3
    m_ReadOnly: 0
    m_SerializedLabels:
    - 25
  - m_GUID: a541e7b93b307d943a5d4813c909669e
    m_Address: Assets/_Content/25/AUDIO/marktkirche.mp3
    m_ReadOnly: 0
    m_SerializedLabels:
    - 25
  - m_GUID: 4530deed22c9e5d4ba8cd4056f814eb0
    m_Address: Assets/_Content/25/AUDIO/marktplatz.mp3
    m_ReadOnly: 0
    m_SerializedLabels:
    - 25
  - m_GUID: 2acfaca0e6ce4c948ad53c5fa0cd12d7
    m_Address: Assets/_Content/25/AUDIO/neueresidenz.mp3
    m_ReadOnly: 0
    m_SerializedLabels:
    - 25
  - m_GUID: 9eab0632b41afbd44b6718cae78cda03
    m_Address: Assets/_Content/25/AUDIO/landesmuseum.mp3
    m_ReadOnly: 0
    m_SerializedLabels:
    - 25
  - m_GUID: 23109cd605dc5ac489f6d0bdd857d251
    m_Address: Assets/_Content/25/AUDIO/haendelhaus.mp3
    m_ReadOnly: 0
    m_SerializedLabels:
    - 25
  - m_GUID: 5ee226a3e5219084a9212a6d7e2f634d
    m_Address: Assets/_Content/25/AUDIO/dom.mp3
    m_ReadOnly: 0
    m_SerializedLabels:
    - 25
  m_ReadOnly: 0
  m_Settings: {fileID: 11400000, guid: 43ffcd0bf06d2594b86c4c30ec9e8358, type: 2}
  m_SchemaSet:
    m_Schemas:
    - {fileID: 11400000, guid: 8e052f0d8fa9d1c4a853fa00d28e5787, type: 2}
    - {fileID: 11400000, guid: 8dfca6272a1602f41852a8fbebe768d4, type: 2}
