%YAML 1.1
%TAG !u! tag:unity3d.com,2011:
--- !u!114 &11400000
MonoBehaviour:
  m_ObjectHideFlags: 0
  m_CorrespondingSourceObject: {fileID: 0}
  m_PrefabInstance: {fileID: 0}
  m_PrefabAsset: {fileID: 0}
  m_GameObject: {fileID: 0}
  m_Enabled: 1
  m_EditorHideFlags: 0
  m_Script: {fileID: 11500000, guid: bbb281ee3bf0b054c82ac2347e9e782c, type: 3}
  m_Name: 26 Taunus
  m_EditorClassIdentifier: 
  m_GroupName: 26 Taunus
  m_Data:
    m_SerializedData: []
  m_GUID: 83858690a5aad7b429dd372c6f01b4c9
  m_SerializeEntries:
  - m_GUID: 7582c94e797f37b4db19753765a059d9
    m_Address: Assets/_Content/26/AUDIO/pelagiusplatz.mp3
    m_ReadOnly: 0
    m_SerializedLabels:
    - 26
  - m_GUID: 7ca5bbc2931aadc48aed45d168500fb1
    m_Address: Assets/_Content/26/AUDIO/hessenpark.mp3
    m_ReadOnly: 0
    m_SerializedLabels:
    - 26
  - m_GUID: 284a75c96ef801a4b97329d05d3bb1a8
    m_Address: Assets/_Content/26/AUDIO/kapersburg.mp3
    m_ReadOnly: 0
    m_SerializedLabels:
    - 26
  - m_GUID: 9c5df9f7a7a109147b77f3398d821fa1
    m_Address: Assets/_Content/26/AUDIO/altkoenig.mp3
    m_ReadOnly: 0
    m_SerializedLabels:
    - 26
  - m_GUID: fafd615419cacd34cacec9bb3167c5b9
    m_Address: Assets/_Content/26/AUDIO/eschbacher.mp3
    m_ReadOnly: 0
    m_SerializedLabels:
    - 26
  - m_GUID: 5286f4f986cffad44b3bc23e2bd743bf
    m_Address: Assets/_Content/26/AUDIO/winterstein.mp3
    m_ReadOnly: 0
    m_SerializedLabels:
    - 26
  - m_GUID: 018549c7690c77c4e82affd24f275dde
    m_Address: Assets/_Content/26/AUDIO/gaulskopf.mp3
    m_ReadOnly: 0
    m_SerializedLabels:
    - 26
  - m_GUID: c91f9b8f2e525d74ab71aae67931e8f5
    m_Address: Assets/_Content/26/AUDIO/saalburg.mp3
    m_ReadOnly: 0
    m_SerializedLabels:
    - 26
  - m_GUID: 0ebcc347a981da747a04226085c821d7
    m_Address: Assets/_Content/26/AUDIO/vortaunus.mp3
    m_ReadOnly: 0
    m_SerializedLabels:
    - 26
  - m_GUID: ed456549144da1c4db5fd625318ff519
    m_Address: Assets/_Content/26/AUDIO/falkenstein.mp3
    m_ReadOnly: 0
    m_SerializedLabels:
    - 26
  - m_GUID: 9e0e6b437c331ec429a2b782d0f69b11
    m_Address: Assets/_Content/26/AUDIO/kronberg.mp3
    m_ReadOnly: 0
    m_SerializedLabels:
    - 26
  - m_GUID: f5f6695d1b2b7074baa365d3897b51c6
    m_Address: Assets/_Content/26/AUDIO/kleiderschrank.mp3
    m_ReadOnly: 0
    m_SerializedLabels:
    - 26
  - m_GUID: 5beb0728f33ba6747a556e3e55e811ab
    m_Address: Assets/_Content/26/AUDIO/marmorstein.mp3
    m_ReadOnly: 0
    m_SerializedLabels:
    - 26
  - m_GUID: b0086770ca36a2948ae344d61ee4a02f
    m_Address: Assets/_Content/26/AUDIO/grosserfeldberg.mp3
    m_ReadOnly: 0
    m_SerializedLabels:
    - 26
  - m_GUID: 63a5ed18a50b74a419ec0579eaa66ebd
    m_Address: Assets/_Content/26/AUDIO/gickelsburg.mp3
    m_ReadOnly: 0
    m_SerializedLabels:
    - 26
  - m_GUID: bf0dfb3549753384fbc0efb0033d840f
    m_Address: Assets/_Content/26/AUDIO/koenigstein2.mp3
    m_ReadOnly: 0
    m_SerializedLabels:
    - 26
  - m_GUID: 1e6df9effe5b76f47a014b1167d8f6e5
    m_Address: Assets/_Content/26/AUDIO/limes.mp3
    m_ReadOnly: 0
    m_SerializedLabels:
    - 26
  - m_GUID: 4035ff5a905cc4f4e898af38bff35c72
    m_Address: Assets/_Content/26/AUDIO/pferdskopf.mp3
    m_ReadOnly: 0
    m_SerializedLabels:
    - 26
  - m_GUID: 4bb92baf84355ac4b8fc672560334d2e
    m_Address: Assets/_Content/26/AUDIO/koenigstein.mp3
    m_ReadOnly: 0
    m_SerializedLabels:
    - 26
  - m_GUID: 1102bb8f070bded478103c3f70acc644
    m_Address: Assets/_Content/26/AUDIO/oppidum.mp3
    m_ReadOnly: 0
    m_SerializedLabels:
    - 26
  - m_GUID: 4ecf99dbc0a4dc24b90741408f00aadc
    m_Address: Assets/_Content/26/AUDIO/lochmuehle.mp3
    m_ReadOnly: 0
    m_SerializedLabels:
    - 26
  - m_GUID: 0cdcfbfc3811a5e46bf625bfbb03dc88
    m_Address: Assets/_Content/26/AUDIO/jupitersaule.mp3
    m_ReadOnly: 0
    m_SerializedLabels:
    - 26
  - m_GUID: 037d0fdfd032ff542a84c11dd577b514
    m_Address: Assets/_Content/26/AUDIO/kastellkleinerfeldberg.mp3
    m_ReadOnly: 0
    m_SerializedLabels:
    - 26
  - m_GUID: 4e05197218cebfa40ad74020c19f686c
    m_Address: Assets/_Content/26/VIDEO/kasematten.mp4
    m_ReadOnly: 0
    m_SerializedLabels:
    - 26
  - m_GUID: 323bea69df8bfa74f885c4356431d6c6
    m_Address: Assets/_Content/26/IMAGE/26_poi.spriteatlas
    m_ReadOnly: 0
    m_SerializedLabels:
    - 26
  m_ReadOnly: 0
  m_Settings: {fileID: 11400000, guid: 43ffcd0bf06d2594b86c4c30ec9e8358, type: 2}
  m_SchemaSet:
    m_Schemas:
    - {fileID: 11400000, guid: 56b1fa12e215e8d41be9ec986b633585, type: 2}
    - {fileID: 11400000, guid: bad1ce8f582c8ca4ea2f7f6fd65cf12e, type: 2}
