%YAML 1.1
%TAG !u! tag:unity3d.com,2011:
--- !u!114 &11400000
MonoBehaviour:
  m_ObjectHideFlags: 0
  m_CorrespondingSourceObject: {fileID: 0}
  m_PrefabInstance: {fileID: 0}
  m_PrefabAsset: {fileID: 0}
  m_GameObject: {fileID: 0}
  m_Enabled: 1
  m_EditorHideFlags: 0
  m_Script: {fileID: 11500000, guid: bbb281ee3bf0b054c82ac2347e9e782c, type: 3}
  m_Name: 30 Berlin
  m_EditorClassIdentifier: 
  m_GroupName: 30 Berlin
  m_Data:
    m_SerializedData: []
  m_GUID: 5644298da4e0046409ae88279717324c
  m_SerializeEntries:
  - m_GUID: 05a2f56cd1263ca41874ca2b9c77a464
    m_Address: Assets/_Content/30/IMAGE/30_poi.spriteatlas
    m_ReadOnly: 0
    m_SerializedLabels:
    - 30
  - m_GUID: cf2cc517b0d0a6c4d8b841cec47f78b0
    m_Address: Assets/_Content/31/AUDIO/charlottenburg.mp3
    m_ReadOnly: 0
    m_SerializedLabels:
    - 30
  - m_GUID: dfd47daeb05de674d83b5d180b6c8cdd
    m_Address: Assets/_Content/30/AUDIO/humbold.mp3
    m_ReadOnly: 0
    m_SerializedLabels:
    - 30
  - m_GUID: ae2475f0fc6c0c84092724357509bb0b
    m_Address: Assets/_Content/30/AUDIO/reichstagsgebauede.mp3
    m_ReadOnly: 0
    m_SerializedLabels:
    - 30
  - m_GUID: 312ac30aa627ff941be507574b2de774
    m_Address: Assets/_Content/30/AUDIO/brandenburgertor.mp3
    m_ReadOnly: 0
    m_SerializedLabels:
    - 30
  - m_GUID: 1829f56fc50ec3540ba7905cc147ba82
    m_Address: Assets/_Content/30/AUDIO/funkturm.mp3
    m_ReadOnly: 0
    m_SerializedLabels:
    - 30
  - m_GUID: 4a8f56c4298d7fd46b04d5c081ce8d97
    m_Address: Assets/_Content/30/AUDIO/bodemuseum.mp3
    m_ReadOnly: 0
    m_SerializedLabels:
    - 30
  - m_GUID: 1b890a0dbd65588448f4376c277b74d1
    m_Address: Assets/_Content/30/AUDIO/zoo.mp3
    m_ReadOnly: 0
    m_SerializedLabels:
    - 30
  - m_GUID: 03d91e2f476b40c4ca5ed9bac157b039
    m_Address: Assets/_Content/30/AUDIO/botanischegarten.mp3
    m_ReadOnly: 0
    m_SerializedLabels:
    - 30
  - m_GUID: 2df67ab13559dcb44b1a11baf795ef64
    m_Address: Assets/_Content/30/AUDIO/ddrmuseum.mp3
    m_ReadOnly: 0
    m_SerializedLabels:
    - 30
  - m_GUID: cc75c9140958b2041a8f824c7eb5c18e
    m_Address: Assets/_Content/30/AUDIO/neuesmuseum.mp3
    m_ReadOnly: 0
    m_SerializedLabels:
    - 30
  - m_GUID: c14a0e73ce08091469af098bf906e639
    m_Address: Assets/_Content/30/AUDIO/siegessaeule.mp3
    m_ReadOnly: 0
    m_SerializedLabels:
    - 30
  - m_GUID: a352f7c51478d6847b1e5833329c78e0
    m_Address: Assets/_Content/30/AUDIO/potsdamerplatz.mp3
    m_ReadOnly: 0
    m_SerializedLabels:
    - 30
  - m_GUID: 012e9296906986b4cbb709a0328db655
    m_Address: Assets/_Content/30/AUDIO/bellevue.mp3
    m_ReadOnly: 0
    m_SerializedLabels:
    - 30
  - m_GUID: 0e557d5b8bc80474584726c9638d82e4
    m_Address: Assets/_Content/30/AUDIO/altenationalgalerie.mp3
    m_ReadOnly: 0
    m_SerializedLabels:
    - 30
  - m_GUID: c51b9015970ce7d468fd2635e768c7ec
    m_Address: Assets/_Content/30/AUDIO/neuewache.mp3
    m_ReadOnly: 0
    m_SerializedLabels:
    - 30
  - m_GUID: fb5615294bac806438758070e324f648
    m_Address: Assets/_Content/30/AUDIO/trainenpalast.mp3
    m_ReadOnly: 0
    m_SerializedLabels:
    - 30
  - m_GUID: 7cc5708ad70a51f4f91948b00fac882e
    m_Address: Assets/_Content/30/AUDIO/alexanderplatz.mp3
    m_ReadOnly: 0
    m_SerializedLabels:
    - 30
  - m_GUID: 8b7e62032f5ea9546a7e1ad1aef40076
    m_Address: Assets/_Content/30/AUDIO/hackesche.mp3
    m_ReadOnly: 0
    m_SerializedLabels:
    - 30
  - m_GUID: 63da972b5d7727448a95990020658a47
    m_Address: Assets/_Content/30/AUDIO/rathaus.mp3
    m_ReadOnly: 0
    m_SerializedLabels:
    - 30
  - m_GUID: 8db4419479e4001469fa1422d23130e9
    m_Address: Assets/_Content/30/AUDIO/fernsehturm.mp3
    m_ReadOnly: 0
    m_SerializedLabels:
    - 30
  m_ReadOnly: 0
  m_Settings: {fileID: 11400000, guid: 43ffcd0bf06d2594b86c4c30ec9e8358, type: 2}
  m_SchemaSet:
    m_Schemas:
    - {fileID: 11400000, guid: 68794255471feb74da0f55ed9f358516, type: 2}
    - {fileID: 11400000, guid: f74d1ca60326a074c96d009e4d02c82a, type: 2}
