%YAML 1.1
%TAG !u! tag:unity3d.com,2011:
--- !u!114 &11400000
MonoBehaviour:
  m_ObjectHideFlags: 0
  m_CorrespondingSourceObject: {fileID: 0}
  m_PrefabInstance: {fileID: 0}
  m_PrefabAsset: {fileID: 0}
  m_GameObject: {fileID: 0}
  m_Enabled: 1
  m_EditorHideFlags: 0
  m_Script: {fileID: 11500000, guid: bbb281ee3bf0b054c82ac2347e9e782c, type: 3}
  m_Name: 33 Bochum
  m_EditorClassIdentifier: 
  m_GroupName: 33 Bochum
  m_Data:
    m_SerializedData: []
  m_GUID: 1c2d6b7a32ce6874e93e16fad812b565
  m_SerializeEntries:
  - m_GUID: deec824d1f36f46498361c64bb6af926
    m_Address: Assets/_Content/33/IMAGE/33_poi.spriteatlas
    m_ReadOnly: 0
    m_SerializedLabels:
    - 33
  m_ReadOnly: 0
  m_Settings: {fileID: 11400000, guid: 43ffcd0bf06d2594b86c4c30ec9e8358, type: 2}
  m_SchemaSet:
    m_Schemas:
    - {fileID: 11400000, guid: 51b07e2622a1b0d4483f3db722cb6c2d, type: 2}
    - {fileID: 11400000, guid: f300ee309d767ce47831afa0e710a3a9, type: 2}
