%YAML 1.1
%TAG !u! tag:unity3d.com,2011:
--- !u!114 &11400000
MonoBehaviour:
  m_ObjectHideFlags: 0
  m_CorrespondingSourceObject: {fileID: 0}
  m_PrefabInstance: {fileID: 0}
  m_PrefabAsset: {fileID: 0}
  m_GameObject: {fileID: 0}
  m_Enabled: 1
  m_EditorHideFlags: 0
  m_Script: {fileID: 11500000, guid: bbb281ee3bf0b054c82ac2347e9e782c, type: 3}
  m_Name: 34 Schwerin
  m_EditorClassIdentifier: 
  m_GroupName: 34 Schwerin
  m_Data:
    m_SerializedData: []
  m_GUID: 7dd67d4cbba4576448bc67972855204c
  m_SerializeEntries:
  - m_GUID: 888eb1c5671b8d342ba6d5bc0bcd460e
    m_Address: Assets/_Content/34/AUDIO/2schwerinerdom.mp3
    m_ReadOnly: 0
    m_SerializedLabels:
    - 34
  - m_GUID: 4626144fa1eb20f468ad00890a00edbb
    m_Address: Assets/_Content/34/AUDIO/16theater.mp3
    m_ReadOnly: 0
    m_SerializedLabels:
    - 34
  - m_GUID: 059a6327b2f766641b889b6adb5d78cf
    m_Address: Assets/_Content/34/AUDIO/6schirmkinder.mp3
    m_ReadOnly: 0
    m_SerializedLabels:
    - 34
  - m_GUID: 6918dd9991e1a3b478c99bba16eb7820
    m_Address: Assets/_Content/34/AUDIO/17schwerinerschloss.mp3
    m_ReadOnly: 0
    m_SerializedLabels:
    - 34
  - m_GUID: 30e9d17c7651a644e9b011c3b4ee6f34
    m_Address: Assets/_Content/34/IMAGE/34_ac.spriteatlas
    m_ReadOnly: 0
    m_SerializedLabels:
    - 34
  - m_GUID: 25d17e1e9d02a864eb8b6da61c78f561
    m_Address: Assets/_Content/34/IMAGE/34_poi.spriteatlas
    m_ReadOnly: 0
    m_SerializedLabels:
    - 34
  m_ReadOnly: 0
  m_Settings: {fileID: 11400000, guid: 43ffcd0bf06d2594b86c4c30ec9e8358, type: 2}
  m_SchemaSet:
    m_Schemas:
    - {fileID: 11400000, guid: f4524a0f27473964596e1d3dbb2ba9e4, type: 2}
    - {fileID: 11400000, guid: f2401a74418937143b612ec7d731f2c4, type: 2}
