%YAML 1.1
%TAG !u! tag:unity3d.com,2011:
--- !u!114 &11400000
MonoBehaviour:
  m_ObjectHideFlags: 0
  m_CorrespondingSourceObject: {fileID: 0}
  m_PrefabInstance: {fileID: 0}
  m_PrefabAsset: {fileID: 0}
  m_GameObject: {fileID: 0}
  m_Enabled: 1
  m_EditorHideFlags: 0
  m_Script: {fileID: 11500000, guid: bbb281ee3bf0b054c82ac2347e9e782c, type: 3}
  m_Name: Localization-String-Tables-English
  m_EditorClassIdentifier: 
  m_GroupName: Localization-String-Tables-English
  m_Data:
    m_SerializedData: []
  m_GUID: f4bb9a7d647b01b46b8eb160adc56e4c
  m_SerializeEntries:
  - m_GUID: 7cc2ee3f90a16434494b9ba99039f312
    m_Address: UI_en
    m_ReadOnly: 1
    m_SerializedLabels:
    - Locale-en
    - Preload
  m_ReadOnly: 1
  m_Settings: {fileID: 11400000, guid: 43ffcd0bf06d2594b86c4c30ec9e8358, type: 2}
  m_SchemaSet:
    m_Schemas:
    - {fileID: 11400000, guid: 771d1d9a1ca6bf04aa0cdd2a7aa2ba0b, type: 2}
    - {fileID: 11400000, guid: e7423cf0b59c34745b4da86f245fad5a, type: 2}
