%YAML 1.1
%TAG !u! tag:unity3d.com,2011:
--- !u!114 &11400000
MonoBehaviour:
  m_ObjectHideFlags: 0
  m_CorrespondingSourceObject: {fileID: 0}
  m_PrefabInstance: {fileID: 0}
  m_PrefabAsset: {fileID: 0}
  m_GameObject: {fileID: 0}
  m_Enabled: 1
  m_EditorHideFlags: 0
  m_Script: {fileID: 11500000, guid: bbb281ee3bf0b054c82ac2347e9e782c, type: 3}
  m_Name: Shared
  m_EditorClassIdentifier: 
  m_GroupName: Shared
  m_Data:
    m_SerializedData: []
  m_GUID: 90cbaf5278622ea4280f8714bc77e40e
  m_SerializeEntries:
  - m_GUID: ce34fb070ff1f9448b128348fe2c7aba
    m_Address: Assets/_Content/ArGame/Module Minigame Mascot Catch 1.prefab
    m_ReadOnly: 0
    m_SerializedLabels:
    - Preload
  - m_GUID: 0fadf73edc03bba4698adc1c67d7bec9
    m_Address: Assets/_Content/ArGame/Module Minigame Mascot Catch 2.prefab
    m_ReadOnly: 0
    m_SerializedLabels:
    - Preload
  - m_GUID: 175101e4346e878459acde1edcbe7a59
    m_Address: Assets/_Content/ArGame/Module Minigame Mascot Catch 3.prefab
    m_ReadOnly: 0
    m_SerializedLabels:
    - Preload
  - m_GUID: b4ee75611b660d645a0267fefc1d053f
    m_Address: Assets/_Content/ArGame/Module Minigame Mascot Catch 4.prefab
    m_ReadOnly: 0
    m_SerializedLabels:
    - Preload
  - m_GUID: 64b2c0568deb63f4c97c1d12869d44a8
    m_Address: Assets/_Content/ArGame/Module Minigame Mascot Catch 5.prefab
    m_ReadOnly: 0
    m_SerializedLabels:
    - Preload
  - m_GUID: 76bd9abd9e8f21549b91927fa3f5772a
    m_Address: Assets/_Content/Headers/AtlasCityHeaders.spriteatlas
    m_ReadOnly: 0
    m_SerializedLabels:
    - Preload
  - m_GUID: 078e4bdc00733114d92fec40092d2398
    m_Address: Assets/_Content/Mascots/mascots.spriteatlas
    m_ReadOnly: 0
    m_SerializedLabels:
    - Preload
  - m_GUID: 0894f786c6912dc4f9516a69b9240c3f
    m_Address: Assets/_Content/Shared/Splash Img/header 1.jpg
    m_ReadOnly: 0
    m_SerializedLabels:
    - Preload
  - m_GUID: cd782498f2417c64ebcaf96feb178812
    m_Address: Assets/_Content/Shared/Splash Img/christmas_dresden.jpg
    m_ReadOnly: 0
    m_SerializedLabels:
    - Preload
  - m_GUID: 9d33af66bbffcac48b74d870a54c3f9e
    m_Address: Assets/_Content/ArGame/Module Minigame Mascot Catch 6.prefab
    m_ReadOnly: 0
    m_SerializedLabels:
    - Preload
  - m_GUID: 8f8471ecca505bd4fb9246cbf8eeee70
    m_Address: Assets/_Content/Shared/Trophies/TrophiesAtlas.spriteatlas
    m_ReadOnly: 0
    m_SerializedLabels:
    - Preload
  - m_GUID: 4ebab655aece81049a4d70d2b0b26853
    m_Address: Assets/_Content/Shared/Stamps/SharedStampAtlas.spriteatlas
    m_ReadOnly: 0
    m_SerializedLabels:
    - Preload
  - m_GUID: ccb7d18317a9a1e49b0299ace797bde2
    m_Address: Assets/_Content/ArGame/Module Minigame Mascot Catch 7.prefab
    m_ReadOnly: 0
    m_SerializedLabels:
    - Preload
  m_ReadOnly: 0
  m_Settings: {fileID: 11400000, guid: 43ffcd0bf06d2594b86c4c30ec9e8358, type: 2}
  m_SchemaSet:
    m_Schemas:
    - {fileID: 11400000, guid: 6c3800d94d0072c4caf3fb68f4d70def, type: 2}
    - {fileID: 11400000, guid: 8dc8327a877fe384cb5b7a884f121950, type: 2}
