%YAML 1.1
%TAG !u! tag:unity3d.com,2011:
--- !u!687078895 &4343727234628468602
SpriteAtlas:
  m_ObjectHideFlags: 0
  m_CorrespondingSourceObject: {fileID: 0}
  m_PrefabInstance: {fileID: 0}
  m_PrefabAsset: {fileID: 0}
  m_Name: 13_poi
  m_EditorData:
    serializedVersion: 2
    textureSettings:
      serializedVersion: 2
      anisoLevel: 1
      compressionQuality: 50
      maxTextureSize: 2048
      textureCompression: 0
      filterMode: 1
      generateMipMaps: 0
      readable: 0
      crunchedCompression: 0
      sRGB: 1
    platformSettings: []
    packingSettings:
      serializedVersion: 2
      padding: 4
      blockOffset: 1
      allowAlphaSplitting: 0
      enableRotation: 1
      enableTightPacking: 1
      enableAlphaDilation: 0
    secondaryTextureSettings: {}
    variantMultiplier: 1
    packables:
    - {fileID: 2800000, guid: 67e8eac9dc13ecd46b7dbb4faa628caf, type: 3}
    - {fileID: 2800000, guid: 502e171d63109ce44b898df4ecebf194, type: 3}
    - {fileID: 2800000, guid: a2d7fe46a2426a54d9ccce3212cd2b34, type: 3}
    - {fileID: 2800000, guid: 63021530674850e439c7593999b25740, type: 3}
    - {fileID: 2800000, guid: 0babdec8ee2bfc747a4c93870326a9ed, type: 3}
    - {fileID: 2800000, guid: 68cbaef82f1ddd542b54a1a84b8e8e12, type: 3}
    - {fileID: 2800000, guid: 9faeafdfc25505544b3dd5771373e60a, type: 3}
    - {fileID: 2800000, guid: a0b21db3001c10247b77fb2ea3aa23ca, type: 3}
    - {fileID: 2800000, guid: 91ed7d6116e03cb4d84162b067e1e042, type: 3}
    - {fileID: 2800000, guid: a05e9458133c2bc4f87551a6e059997f, type: 3}
    - {fileID: 2800000, guid: 475901e76712b414a97dab3bb23fea8e, type: 3}
    - {fileID: 2800000, guid: 86178b840d007674ca3463410f8d1aee, type: 3}
    - {fileID: 2800000, guid: 44d496b60293ac543b11efe3ce73f024, type: 3}
    - {fileID: 2800000, guid: fb4d8f7401197f3468cdfd5a067e574d, type: 3}
    - {fileID: 2800000, guid: 2b3fe8a72626fba4fad7de57fd5f1c0f, type: 3}
    - {fileID: 2800000, guid: c24992e132d2d68479b0a3d4e4b01259, type: 3}
    - {fileID: 2800000, guid: bf6c4f52794dd0046bed168cde976576, type: 3}
    bindAsDefault: 0
    isAtlasV2: 0
    cachedData: {fileID: 0}
  m_MasterAtlas: {fileID: 0}
  m_PackedSprites:
  - {fileID: 21300000, guid: 63021530674850e439c7593999b25740, type: 3}
  - {fileID: 21300000, guid: 91ed7d6116e03cb4d84162b067e1e042, type: 3}
  - {fileID: 21300000, guid: c24992e132d2d68479b0a3d4e4b01259, type: 3}
  - {fileID: 21300000, guid: bf6c4f52794dd0046bed168cde976576, type: 3}
  - {fileID: 21300000, guid: a0b21db3001c10247b77fb2ea3aa23ca, type: 3}
  - {fileID: 21300000, guid: fb4d8f7401197f3468cdfd5a067e574d, type: 3}
  - {fileID: 21300000, guid: 86178b840d007674ca3463410f8d1aee, type: 3}
  - {fileID: 21300000, guid: a2d7fe46a2426a54d9ccce3212cd2b34, type: 3}
  - {fileID: 21300000, guid: 44d496b60293ac543b11efe3ce73f024, type: 3}
  - {fileID: 21300000, guid: 2b3fe8a72626fba4fad7de57fd5f1c0f, type: 3}
  - {fileID: 21300000, guid: 475901e76712b414a97dab3bb23fea8e, type: 3}
  - {fileID: 21300000, guid: a05e9458133c2bc4f87551a6e059997f, type: 3}
  - {fileID: 21300000, guid: 0babdec8ee2bfc747a4c93870326a9ed, type: 3}
  - {fileID: 21300000, guid: 68cbaef82f1ddd542b54a1a84b8e8e12, type: 3}
  - {fileID: 21300000, guid: 67e8eac9dc13ecd46b7dbb4faa628caf, type: 3}
  - {fileID: 21300000, guid: 502e171d63109ce44b898df4ecebf194, type: 3}
  - {fileID: 21300000, guid: 9faeafdfc25505544b3dd5771373e60a, type: 3}
  m_PackedSpriteNamesToIndex:
  - 4Terasse
  - 9zoo
  - semperoper
  - stallhof
  - 8fk
  - dresden-japan-palais
  - verkehrsmuseum
  - 3Hofkirche
  - terasse
  - palais
  - dresden-albertinum
  - 10mh
  - 5reiter
  - 6Altmarkt
  - 1Zwinger
  - 2Fuerstenzug
  - 7bw
  m_RenderDataMap: {}
  m_Tag: 13_poi
  m_IsVariant: 0
