%YAML 1.1
%TAG !u! tag:unity3d.com,2011:
--- !u!687078895 &4343727234628468602
SpriteAtlas:
  m_ObjectHideFlags: 0
  m_CorrespondingSourceObject: {fileID: 0}
  m_PrefabInstance: {fileID: 0}
  m_PrefabAsset: {fileID: 0}
  m_Name: 31_poi
  m_EditorData:
    serializedVersion: 2
    textureSettings:
      serializedVersion: 2
      anisoLevel: 1
      compressionQuality: 50
      maxTextureSize: 2048
      textureCompression: 0
      filterMode: 1
      generateMipMaps: 0
      readable: 0
      crunchedCompression: 0
      sRGB: 1
    platformSettings: []
    packingSettings:
      serializedVersion: 2
      padding: 4
      blockOffset: 1
      allowAlphaSplitting: 0
      enableRotation: 1
      enableTightPacking: 1
      enableAlphaDilation: 0
    secondaryTextureSettings: {}
    variantMultiplier: 1
    packables:
    - {fileID: 2800000, guid: 3d916ce7c4227d948952cc896256a102, type: 3}
    - {fileID: 2800000, guid: f97fd4e34bd6a684d88e484118708153, type: 3}
    - {fileID: 2800000, guid: d9ef12557e2a65040bbaa9f1e2b61b9b, type: 3}
    - {fileID: 2800000, guid: 133474bba0ef1b146a338f50cec73b76, type: 3}
    - {fileID: 2800000, guid: 927a69772a2a0a64da9827eda7f73a59, type: 3}
    - {fileID: 2800000, guid: dea114f0ea1c92147ad8dfbd3f54cedc, type: 3}
    - {fileID: 2800000, guid: 4e8020bfc5a18e74b9e28a4e03f31684, type: 3}
    - {fileID: 2800000, guid: ccab8fc4ac3a8fc41b8a6a6fd0ebf51b, type: 3}
    - {fileID: 2800000, guid: f8b5ee0338900174cb9472cbe95db053, type: 3}
    - {fileID: 2800000, guid: d97c06db1350f704ca53dc5d03997be0, type: 3}
    bindAsDefault: 0
    isAtlasV2: 0
    cachedData: {fileID: 0}
  m_MasterAtlas: {fileID: 0}
  m_PackedSprites:
  - {fileID: 21300000, guid: dea114f0ea1c92147ad8dfbd3f54cedc, type: 3}
  - {fileID: 21300000, guid: f8b5ee0338900174cb9472cbe95db053, type: 3}
  - {fileID: 21300000, guid: f97fd4e34bd6a684d88e484118708153, type: 3}
  - {fileID: 21300000, guid: ccab8fc4ac3a8fc41b8a6a6fd0ebf51b, type: 3}
  - {fileID: 21300000, guid: d9ef12557e2a65040bbaa9f1e2b61b9b, type: 3}
  - {fileID: 21300000, guid: 927a69772a2a0a64da9827eda7f73a59, type: 3}
  - {fileID: 21300000, guid: 3d916ce7c4227d948952cc896256a102, type: 3}
  - {fileID: 21300000, guid: 133474bba0ef1b146a338f50cec73b76, type: 3}
  - {fileID: 21300000, guid: d97c06db1350f704ca53dc5d03997be0, type: 3}
  - {fileID: 21300000, guid: 4e8020bfc5a18e74b9e28a4e03f31684, type: 3}
  m_PackedSpriteNamesToIndex:
  - bu_marktplatz_wdv_uh
  - bu_schloss_wdv_uh
  - bu_jerusalemertor_wdv_uh
  - bu_oberhof_wdv_uh
  - bu_koelsch_uh
  - bu_marienkirche_wdv_uh
  - bu_bollwerk_wdv_uh
  - bu_ludwigsturm_wdv_uh
  - bu_steinerneshaus_wdv_uh
  - bu_muehltor_wdv_uh
  m_RenderDataMap: {}
  m_Tag: 31_poi
  m_IsVariant: 0
