%YAML 1.1
%TAG !u! tag:unity3d.com,2011:
--- !u!114 &11400000
MonoBehaviour:
  m_ObjectHideFlags: 0
  m_CorrespondingSourceObject: {fileID: 0}
  m_PrefabInstance: {fileID: 0}
  m_PrefabAsset: {fileID: 0}
  m_GameObject: {fileID: 0}
  m_Enabled: 1
  m_EditorHideFlags: 0
  m_Script: {fileID: 11500000, guid: 572910c10080c0945a0ef731ccedc739, type: 3}
  m_Name: PostProcessData
  m_EditorClassIdentifier: 
  shaders:
    stopNanPS: {fileID: 4800000, guid: 1121bb4e615ca3c48b214e79e841e823, type: 3}
    subpixelMorphologicalAntialiasingPS: {fileID: 4800000, guid: 63eaba0ebfb82cc43bde059b4a8c65f6, type: 3}
    gaussianDepthOfFieldPS: {fileID: 4800000, guid: 5e7134d6e63e0bc47a1dd2669cedb379, type: 3}
    bokehDepthOfFieldPS: {fileID: 4800000, guid: 2aed67ad60045d54ba3a00c91e2d2631, type: 3}
    cameraMotionBlurPS: {fileID: 4800000, guid: 1edcd131364091c46a17cbff0b1de97a, type: 3}
    paniniProjectionPS: {fileID: 4800000, guid: a15b78cf8ca26ca4fb2090293153c62c, type: 3}
    lutBuilderLdrPS: {fileID: 4800000, guid: 65df88701913c224d95fc554db28381a, type: 3}
    lutBuilderHdrPS: {fileID: 4800000, guid: ec9fec698a3456d4fb18cf8bacb7a2bc, type: 3}
    bloomPS: {fileID: 4800000, guid: 5f1864addb451f54bae8c86d230f736e, type: 3}
    LensFlareDataDrivenPS: {fileID: 4800000, guid: 6cda457ac28612740adb23da5d39ea92, type: 3}
    scalingSetupPS: {fileID: 4800000, guid: e8ee25143a34b8c4388709ea947055d1, type: 3}
    easuPS: {fileID: 4800000, guid: 562b7ae4f629f144aa97780546fce7c6, type: 3}
    uberPostPS: {fileID: 4800000, guid: e7857e9d0c934dc4f83f270f8447b006, type: 3}
    finalPostPassPS: {fileID: 4800000, guid: c49e63ed1bbcb334780a3bd19dfed403, type: 3}
  textures:
    blueNoise16LTex: []
    filmGrainTex: []
    smaaAreaTex: {fileID: 2800000, guid: d1f1048909d55cd4fa1126ab998f617e, type: 3}
    smaaSearchTex: {fileID: 2800000, guid: 51eee22c2a633ef4aada830eed57c3fd, type: 3}
