%YAML 1.1
%TAG !u! tag:unity3d.com,2011:
--- !u!687078895 &4343727234628468602
SpriteAtlas:
  m_ObjectHideFlags: 0
  m_CorrespondingSourceObject: {fileID: 0}
  m_PrefabInstance: {fileID: 0}
  m_PrefabAsset: {fileID: 0}
  m_Name: 5_poi
  m_EditorData:
    serializedVersion: 2
    textureSettings:
      serializedVersion: 2
      anisoLevel: 1
      compressionQuality: 50
      maxTextureSize: 2048
      textureCompression: 0
      filterMode: 1
      generateMipMaps: 0
      readable: 0
      crunchedCompression: 0
      sRGB: 1
    platformSettings: []
    packingSettings:
      serializedVersion: 2
      padding: 4
      blockOffset: 1
      allowAlphaSplitting: 0
      enableRotation: 1
      enableTightPacking: 1
      enableAlphaDilation: 0
    secondaryTextureSettings: {}
    variantMultiplier: 1
    packables:
    - {fileID: 2800000, guid: 63d797e6f69b2bf4eb5933285249159d, type: 3}
    - {fileID: 2800000, guid: 35c34b218a59a5540a328b9f28cb8004, type: 3}
    - {fileID: 2800000, guid: c65b13bd3feb5c0458e664ecbf9567ca, type: 3}
    - {fileID: 2800000, guid: ca9a54b48c2181a48971d6e39afff0cb, type: 3}
    - {fileID: 2800000, guid: f33d812bde35b52459ca61eeaffa6e3d, type: 3}
    - {fileID: 2800000, guid: 0fced4a15c3f8134382eb23043040f7a, type: 3}
    - {fileID: 2800000, guid: 4ba7260e010f79f49b184444f42d651d, type: 3}
    - {fileID: 2800000, guid: d3e977de9bc39ce498d61b4a70983846, type: 3}
    - {fileID: 2800000, guid: be8922ffc380f8244b302d53d75745cf, type: 3}
    - {fileID: 2800000, guid: 3c7f0670bc0365e47b8e5202c0f27f87, type: 3}
    - {fileID: 2800000, guid: 2d64f37e346c86346bafd73fa6081018, type: 3}
    - {fileID: 2800000, guid: 622c8ad383139e5478f7761a35e134a0, type: 3}
    - {fileID: 2800000, guid: 651277855e1ae44479a30dde45a10d39, type: 3}
    - {fileID: 2800000, guid: 8232eecac3b76d841b3ed96d89daedb4, type: 3}
    bindAsDefault: 0
    isAtlasV2: 0
    cachedData: {fileID: 0}
  m_MasterAtlas: {fileID: 0}
  m_PackedSprites:
  - {fileID: 21300000, guid: 3c7f0670bc0365e47b8e5202c0f27f87, type: 3}
  - {fileID: 21300000, guid: 35c34b218a59a5540a328b9f28cb8004, type: 3}
  - {fileID: 21300000, guid: 0fced4a15c3f8134382eb23043040f7a, type: 3}
  - {fileID: 21300000, guid: 622c8ad383139e5478f7761a35e134a0, type: 3}
  - {fileID: 21300000, guid: ca9a54b48c2181a48971d6e39afff0cb, type: 3}
  - {fileID: 21300000, guid: 651277855e1ae44479a30dde45a10d39, type: 3}
  - {fileID: 21300000, guid: 63d797e6f69b2bf4eb5933285249159d, type: 3}
  - {fileID: 21300000, guid: 8232eecac3b76d841b3ed96d89daedb4, type: 3}
  - {fileID: 21300000, guid: f33d812bde35b52459ca61eeaffa6e3d, type: 3}
  - {fileID: 21300000, guid: c65b13bd3feb5c0458e664ecbf9567ca, type: 3}
  - {fileID: 21300000, guid: 4ba7260e010f79f49b184444f42d651d, type: 3}
  - {fileID: 21300000, guid: 2d64f37e346c86346bafd73fa6081018, type: 3}
  - {fileID: 21300000, guid: d3e977de9bc39ce498d61b4a70983846, type: 3}
  - {fileID: 21300000, guid: be8922ffc380f8244b302d53d75745cf, type: 3}
  m_PackedSpriteNamesToIndex:
  - Fotolia_Alexandr-Vasilyev_105213610_M-1000
  - 85
  - 90
  - kinder1
  - 88
  - ludwigsmonument
  - 84
  - ludwigsturm
  - 89
  - 87
  - 91
  - hundertwasserhaus
  - 92
  - 93
  m_RenderDataMap: {}
  m_Tag: 5_poi
  m_IsVariant: 0
