%YAML 1.1
%TAG !u! tag:unity3d.com,2011:
--- !u!687078895 &4343727234628468602
SpriteAtlas:
  m_ObjectHideFlags: 0
  m_CorrespondingSourceObject: {fileID: 0}
  m_PrefabInstance: {fileID: 0}
  m_PrefabAsset: {fileID: 0}
  m_Name: 26_poi
  m_EditorData:
    serializedVersion: 2
    textureSettings:
      serializedVersion: 2
      anisoLevel: 1
      compressionQuality: 50
      maxTextureSize: 2048
      textureCompression: 0
      filterMode: 1
      generateMipMaps: 0
      readable: 0
      crunchedCompression: 0
      sRGB: 1
    platformSettings: []
    packingSettings:
      serializedVersion: 2
      padding: 4
      blockOffset: 1
      allowAlphaSplitting: 0
      enableRotation: 1
      enableTightPacking: 1
      enableAlphaDilation: 0
    secondaryTextureSettings: {}
    variantMultiplier: 1
    packables:
    - {fileID: 2800000, guid: d8abeff1dd4b5c544bae1af149d8c365, type: 3}
    - {fileID: 2800000, guid: 527cd6676d84fb6499614b0f775bc9b9, type: 3}
    - {fileID: 2800000, guid: fdf60d022dbf089418c197e7f710033e, type: 3}
    - {fileID: 2800000, guid: d2568c5c366d6154eb6e1bae52180629, type: 3}
    - {fileID: 2800000, guid: 3eaaa404eb217df49ba8f5ecb3b72720, type: 3}
    - {fileID: 2800000, guid: e57297e5654072a46b73133df8fad1ca, type: 3}
    - {fileID: 2800000, guid: 962ffda9cc1e00d4fbf78143140f57b5, type: 3}
    - {fileID: 2800000, guid: ea071e6cd22980541896b5f413924eea, type: 3}
    - {fileID: 2800000, guid: e00e3ba4475c5734ab19018385eaec0b, type: 3}
    - {fileID: 2800000, guid: c4b1f026b06524a45bb1dc6cd8f3ab59, type: 3}
    - {fileID: 2800000, guid: 7a28d288b6d0d5d49a6597c04bf45805, type: 3}
    - {fileID: 2800000, guid: f097e8ff2e4f99242b3b452c6219c474, type: 3}
    - {fileID: 2800000, guid: c68e278fda69fee40bbe3cd6461b1529, type: 3}
    - {fileID: 2800000, guid: e31df36fd18b4444197be6c29e869729, type: 3}
    - {fileID: 2800000, guid: b3d32afc633361641b84f6b175c0af6d, type: 3}
    - {fileID: 2800000, guid: efe779fae2497bd4f982779dc397a0e4, type: 3}
    - {fileID: 2800000, guid: a82089118d49f6646837380558d83fda, type: 3}
    - {fileID: 2800000, guid: 106a11b8ea64a89428067e1fab51a4a9, type: 3}
    - {fileID: 2800000, guid: 747ee5208789d5f4f912922b15e35c62, type: 3}
    - {fileID: 2800000, guid: d26fd9394d3e5594c89a8552c5c38d65, type: 3}
    - {fileID: 2800000, guid: 80d350041c2ad0e48a9763acba8d90f9, type: 3}
    - {fileID: 2800000, guid: 42101d9fda21c864cb67b191b1271567, type: 3}
    - {fileID: 2800000, guid: e0920f12541422747ac9fb8372212039, type: 3}
    - {fileID: 2800000, guid: 1195e0320ea89c84abf514b2d73b1256, type: 3}
    - {fileID: 2800000, guid: 4f14711cea5295145bef1afa657bd15b, type: 3}
    - {fileID: 2800000, guid: d37218f93368f8c418a275487260a404, type: 3}
    - {fileID: 2800000, guid: d19431965793eec438bb3d65e7f205f7, type: 3}
    - {fileID: 2800000, guid: 8f1bf14918e5db14482649273644a9e1, type: 3}
    - {fileID: 2800000, guid: f6cb5fdfb065e2843923671390e75db4, type: 3}
    - {fileID: 2800000, guid: 26f1c27d501dbbc4eb55a59c58229a31, type: 3}
    - {fileID: 2800000, guid: d9547b2725bada649a002d1d6023df3d, type: 3}
    - {fileID: 2800000, guid: 43a963e441effd440afee308e6c945f6, type: 3}
    - {fileID: 2800000, guid: 1173510fd482d0647a18f96df2a51e6d, type: 3}
    - {fileID: 2800000, guid: 0af62ebf97a8bc94e9f2a5711e064bce, type: 3}
    bindAsDefault: 0
    isAtlasV2: 0
    cachedData: {fileID: 0}
  m_MasterAtlas: {fileID: 0}
  m_PackedSprites:
  - {fileID: 21300000, guid: 747ee5208789d5f4f912922b15e35c62, type: 3}
  - {fileID: 21300000, guid: a82089118d49f6646837380558d83fda, type: 3}
  - {fileID: 21300000, guid: d8abeff1dd4b5c544bae1af149d8c365, type: 3}
  - {fileID: 21300000, guid: fdf60d022dbf089418c197e7f710033e, type: 3}
  - {fileID: 21300000, guid: e0920f12541422747ac9fb8372212039, type: 3}
  - {fileID: 21300000, guid: 1195e0320ea89c84abf514b2d73b1256, type: 3}
  - {fileID: 21300000, guid: 80d350041c2ad0e48a9763acba8d90f9, type: 3}
  - {fileID: 21300000, guid: 3eaaa404eb217df49ba8f5ecb3b72720, type: 3}
  - {fileID: 21300000, guid: e00e3ba4475c5734ab19018385eaec0b, type: 3}
  - {fileID: 21300000, guid: 43a963e441effd440afee308e6c945f6, type: 3}
  - {fileID: 21300000, guid: e57297e5654072a46b73133df8fad1ca, type: 3}
  - {fileID: 21300000, guid: c4b1f026b06524a45bb1dc6cd8f3ab59, type: 3}
  - {fileID: 21300000, guid: d19431965793eec438bb3d65e7f205f7, type: 3}
  - {fileID: 21300000, guid: d9547b2725bada649a002d1d6023df3d, type: 3}
  - {fileID: 21300000, guid: 527cd6676d84fb6499614b0f775bc9b9, type: 3}
  - {fileID: 21300000, guid: 7a28d288b6d0d5d49a6597c04bf45805, type: 3}
  - {fileID: 21300000, guid: 106a11b8ea64a89428067e1fab51a4a9, type: 3}
  - {fileID: 21300000, guid: d26fd9394d3e5594c89a8552c5c38d65, type: 3}
  - {fileID: 21300000, guid: 8f1bf14918e5db14482649273644a9e1, type: 3}
  - {fileID: 21300000, guid: 962ffda9cc1e00d4fbf78143140f57b5, type: 3}
  - {fileID: 21300000, guid: d37218f93368f8c418a275487260a404, type: 3}
  - {fileID: 21300000, guid: efe779fae2497bd4f982779dc397a0e4, type: 3}
  - {fileID: 21300000, guid: 4f14711cea5295145bef1afa657bd15b, type: 3}
  - {fileID: 21300000, guid: d2568c5c366d6154eb6e1bae52180629, type: 3}
  - {fileID: 21300000, guid: ea071e6cd22980541896b5f413924eea, type: 3}
  - {fileID: 21300000, guid: b3d32afc633361641b84f6b175c0af6d, type: 3}
  - {fileID: 21300000, guid: 26f1c27d501dbbc4eb55a59c58229a31, type: 3}
  - {fileID: 21300000, guid: 1173510fd482d0647a18f96df2a51e6d, type: 3}
  - {fileID: 21300000, guid: e31df36fd18b4444197be6c29e869729, type: 3}
  - {fileID: 21300000, guid: c68e278fda69fee40bbe3cd6461b1529, type: 3}
  - {fileID: 21300000, guid: 42101d9fda21c864cb67b191b1271567, type: 3}
  - {fileID: 21300000, guid: 0af62ebf97a8bc94e9f2a5711e064bce, type: 3}
  - {fileID: 21300000, guid: f6cb5fdfb065e2843923671390e75db4, type: 3}
  - {fileID: 21300000, guid: f097e8ff2e4f99242b3b452c6219c474, type: 3}
  m_PackedSpriteNamesToIndex:
  - koenigstein
  - kleiderschrank
  - altkoenig
  - dtempel
  - loch
  - marmorstein
  - limes
  - feldberg
  - gickelsburg
  - tiz
  - Footer
  - gotischeshaus
  - pelagiusplatz
  - steinbruch
  - basic
  - herzberg
  - klippen
  - kronberg
  - pferdskopf
  - forellengut
  - opidium
  - kastellklein
  - opelzoo
  - falkenstein
  - gaulskopf
  - kapersburg
  - wmauer
  - vortaunus
  - jupitersaeule
  - hirschgarten
  - lips
  - winterstein
  - saalburg
  - hessenpark
  m_RenderDataMap: {}
  m_Tag: 26_poi
  m_IsVariant: 0
