%YAML 1.1
%TAG !u! tag:unity3d.com,2011:
--- !u!114 &11400000
MonoBehaviour:
  m_ObjectHideFlags: 0
  m_CorrespondingSourceObject: {fileID: 0}
  m_PrefabInstance: {fileID: 0}
  m_PrefabAsset: {fileID: 0}
  m_GameObject: {fileID: 0}
  m_Enabled: 1
  m_EditorHideFlags: 0
  m_Script: {fileID: 11500000, guid: e9620f8c34305754d8cc9a7e49e852d9, type: 3}
  m_Name: UI_de
  m_EditorClassIdentifier: 
  m_LocaleId:
    m_Code: de
  m_SharedData: {fileID: 11400000, guid: fc49a832f9a8c7540a94c5412f1f06b4, type: 2}
  m_Metadata:
    m_Items: []
  m_TableData:
  - m_Id: 539627044864
    m_Localized: "Gef\xFChrte Tour"
    m_Metadata:
      m_Items: []
  - m_Id: 2289813635072
    m_Localized: Freies Erkunden
    m_Metadata:
      m_Items: []
  - m_Id: 572887875584
    m_Localized: Schnitzeljagd
    m_Metadata:
      m_Items: []
  - m_Id: 14721902657536
    m_Localized: "zur\xFCck"
    m_Metadata:
      m_Items: []
  - m_Id: 14783634423808
    m_Localized: weiter
    m_Metadata:
      m_Items: []
  - m_Id: 9821353801105408
    m_Localized: Sie verlieren den Fortschritt der aktuellen Tour, wenn Sie jetzt
      die Region wechseln. Trotzdem fortfahren?
    m_Metadata:
      m_Items: []
  - m_Id: 34127185657856
    m_Localized: Zur Karte
    m_Metadata:
      m_Items: []
  - m_Id: 1112079373647872
    m_Localized: Hauptseite
    m_Metadata:
      m_Items: []
  - m_Id: 1112165218467840
    m_Localized: Infos
    m_Metadata:
      m_Items: []
  - m_Id: 1112487735279616
    m_Localized: Einstellungen
    m_Metadata:
      m_Items: []
  - m_Id: 1112540843556864
    m_Localized: Datenschutz & Impressum
    m_Metadata:
      m_Items: []
  - m_Id: 1438796659245056
    m_Localized: "Troph\xE4en"
    m_Metadata:
      m_Items: []
  - m_Id: 1441679576350720
    m_Localized: Mediaguide
    m_Metadata:
      m_Items: []
  - m_Id: 1441742033731584
    m_Localized: Zusatzinhalte
    m_Metadata:
      m_Items: []
  - m_Id: 1442451764494336
    m_Localized: Minispiele
    m_Metadata:
      m_Items: []
  - m_Id: 1442541744898048
    m_Localized: Augmented Reality
    m_Metadata:
      m_Items: []
  - m_Id: 1442599877951488
    m_Localized: Quiz
    m_Metadata:
      m_Items: []
  - m_Id: 1444672178700288
    m_Localized: Zuletzt besucht
    m_Metadata:
      m_Items: []
  - m_Id: 32653370691371008
    m_Localized: Stempelstellen
    m_Metadata:
      m_Items: []
  - m_Id: 1856512830423040
    m_Localized: Region wechseln
    m_Metadata:
      m_Items: []
  - m_Id: 1857134984118272
    m_Localized: Lesezeichen
    m_Metadata:
      m_Items: []
  - m_Id: 1857533065510912
    m_Localized: Tour-Varianten
    m_Metadata:
      m_Items: []
  - m_Id: 1862966303997952
    m_Localized: "App schlie\xDFen"
    m_Metadata:
      m_Items: []
  - m_Id: 1864267884609536
    m_Localized: Ja
    m_Metadata:
      m_Items: []
  - m_Id: 1864281730007040
    m_Localized: Abbrechen
    m_Metadata:
      m_Items: []
  - m_Id: 4005241003917312
    m_Localized: Punkte
    m_Metadata:
      m_Items: []
  - m_Id: 4329480890302464
    m_Localized: "W\xE4hle eine Region auf der Karte oder im Men\xFC unter Regionen
      aus"
    m_Metadata:
      m_Items: []
  - m_Id: 4423351217373184
    m_Localized: "W\xE4hle eine Tour aus"
    m_Metadata:
      m_Items: []
  - m_Id: 4423384616615936
    m_Localized: Standort wird ermittelt...
    m_Metadata:
      m_Items: []
  - m_Id: 4692285384507392
    m_Localized: Sie sind schon in einer Tour - Sie verlieren den Fortschritt, wenn
      Sie jetzt wechseln. Trotzdem fortfahren?
    m_Metadata:
      m_Items: []
  - m_Id: 4723871333171200
    m_Localized: '{0} erreicht'
    m_Metadata:
      m_Items: []
  - m_Id: 5055838968823808
    m_Localized: besucht
    m_Metadata:
      m_Items: []
  - m_Id: 5132822247849984
    m_Localized: "Applikation schlie\xDFen?"
    m_Metadata:
      m_Items: []
  - m_Id: 42382225010278400
    m_Localized: Um diese Funktion freizuschalten, muss du die Stempelpassstelle
      erst besuchen!
    m_Metadata:
      m_Items: []
  - m_Id: 17021615905128448
    m_Localized: "Ihre jetzige App Version ist veraltet und wird nicht mehr unterst\xFCtzt.
      Bitte hole die neueste Version!"
    m_Metadata:
      m_Items: []
  - m_Id: 21346339086876672
    m_Localized: "Alle Troph\xE4en"
    m_Metadata:
      m_Items: []
  - m_Id: 21367963773255680
    m_Localized: "Regionale Troph\xE4en"
    m_Metadata:
      m_Items: []
  - m_Id: 21400412641247232
    m_Localized: "{0} ausw\xE4hlen?"
    m_Metadata:
      m_Items: []
  - m_Id: 21417355016355840
    m_Localized: Kartenansicht
    m_Metadata:
      m_Items: []
  - m_Id: 21421850190364672
    m_Localized: "Zur\xFCck zur Region"
    m_Metadata:
      m_Items: []
  - m_Id: 24689975287562240
    m_Localized: Zu dieser Region wechseln
    m_Metadata:
      m_Items: []
  - m_Id: 25069438563205120
    m_Localized: Wird geladen...
    m_Metadata:
      m_Items: []
  - m_Id: 25076397291028480
    m_Localized: Akzeptieren
    m_Metadata:
      m_Items: []
  - m_Id: 26830930132287488
    m_Localized: Fange eines der Maskottchen. Du hast {0} Sekunden Zeit.
    m_Metadata:
      m_Items: []
  - m_Id: 27891337324347392
    m_Localized: "Der erste Start der App ben\xF6tigt eine Internetverbindung, um
      zus\xE4tzliche Daten zu laden. Die App wird weiterhin nutzbar sein, auch ohne
      download, allerdings mit Einschr\xE4nkungen (z.B. Bilder werden nicht angezeigt)."
    m_Metadata:
      m_Items: []
  - m_Id: 29031831706222592
    m_Localized: Erneut versuchen
    m_Metadata:
      m_Items: []
  - m_Id: 29037913564463104
    m_Localized: Fortsetzen
    m_Metadata:
      m_Items: []
  - m_Id: 29061757859741696
    m_Localized: "Es gab einen Fehler beim Laden der Daten. Sie k\xF6nnen fortsetzen
      und Daten werden geladen, wenn sie ben\xF6tigt werden (es k\xF6nnte langsam
      sein), oder Sie versuchen es erneut."
    m_Metadata:
      m_Items: []
  - m_Id: 31492984319459328
    m_Localized: Es werden nach Daten Updates gesucht...
    m_Metadata:
      m_Items: []
  - m_Id: 31493048987238400
    m_Localized: Daten werden aktualisiert...
    m_Metadata:
      m_Items: []
  - m_Id: 31493110152773632
    m_Localized: Inhalte werden vorgeladen...
    m_Metadata:
      m_Items: []
  - m_Id: 31567547858370560
    m_Localized: Code eingeben...
    m_Metadata:
      m_Items: []
  - m_Id: 31567967167135744
    m_Localized: "Punkte einl\xF6sen"
    m_Metadata:
      m_Items: []
  - m_Id: 31581459005784064
    m_Localized: "Bereits eingel\xF6ste Punkte: {0}"
    m_Metadata:
      m_Items: []
  - m_Id: 31889267559448576
    m_Localized: "Punkte erfolgreich eingel\xF6st!"
    m_Metadata:
      m_Items: []
  - m_Id: 31889714303156224
    m_Localized: Der eingegebene Code existiert nicht.
    m_Metadata:
      m_Items: []
  - m_Id: 31889926727876608
    m_Localized: Du hast nicht genug Punkte!
    m_Metadata:
      m_Items: []
  - m_Id: 31922442356604928
    m_Localized: Kontakt
    m_Metadata:
      m_Items: []
  - m_Id: 31922619029078016
    m_Localized: "Datenschutzerkl\xE4rung"
    m_Metadata:
      m_Items: []
  - m_Id: 31922739376242688
    m_Localized: Nutzungsbedingungen
    m_Metadata:
      m_Items: []
  - m_Id: 31922844405809152
    m_Localized: "Punkte einl\xF6sen Verlauf"
    m_Metadata:
      m_Items: []
  - m_Id: 32644271975120896
    m_Localized: "Sprache ausw\xE4hlen"
    m_Metadata:
      m_Items: []
  - m_Id: 36951252772798464
    m_Localized: "Bitte zur\xFCcktreten!"
    m_Metadata:
      m_Items: []
  - m_Id: 39934825691824128
    m_Localized: "Bitte lese und akkzeptiere unsere Datenschutzerkl\xE4rung und Impressum,
      um die App zu benutzen!"
    m_Metadata:
      m_Items: []
  - m_Id: 39936674121596928
    m_Localized: Impressum
    m_Metadata:
      m_Items: []
  - m_Id: 9512460776587264
    m_Localized: Diese Stempelstelle wurde noch nicht erreicht
    m_Metadata:
      m_Items: []
  - m_Id: 42443453908860928
    m_Localized: Kamera wird vorbereitet...
    m_Metadata:
      m_Items: []
  - m_Id: 42753330266980352
    m_Localized: <wave>Geschafft!!
    m_Metadata:
      m_Items: []
  - m_Id: 42755223861018624
    m_Localized: <bounce>Nicht geschafft...
    m_Metadata:
      m_Items: []
  - m_Id: 44203879155843072
    m_Localized: Es sind noch keine Standorte vermerkt
    m_Metadata:
      m_Items: []
  - m_Id: 44207101836738560
    m_Localized: Du hast noch keine Stempelstellen besucht...
    m_Metadata:
      m_Items: []
  - m_Id: 44218889517088768
    m_Localized: "Noch keine Punkte eingel\xF6st"
    m_Metadata:
      m_Items: []
  - m_Id: 51780054740844544
    m_Localized: "Punkte zur\xFCcksetzen"
    m_Metadata:
      m_Items: []
  - m_Id: 51792216913821696
    m_Localized: "Du kannst keine Punkte zur\xFCcksetzen, wenn keine Region ausgew\xE4hlt
      wurde!"
    m_Metadata:
      m_Items: []
  - m_Id: 51792480106397696
    m_Localized: "Willst du wirklich deine Punkte f\xFCr diese Region zur\xFCcksetzen?
      Das kann man nicht r\xFCckg\xE4ngig machen."
    m_Metadata:
      m_Items: []
  - m_Id: 51823447479107584
    m_Localized: Audio Dateien
    m_Metadata:
      m_Items: []
  - m_Id: 51823704980013056
    m_Localized: Hintergrundmusik
    m_Metadata:
      m_Items: []
  - m_Id: 51823819434180608
    m_Localized: Sound Effekte
    m_Metadata:
      m_Items: []
  - m_Id: 51831936742014976
    m_Localized: "Augmented Reality blendet zus\xE4tzliche Inhalte auf dem Smartphone
      ein.\nBitte achten Sie bei Bewegungen mit dem Smartphone auf Ihre Umgebung,
      um Unf\xE4lle zu vermeiden.\nEltern werden gebeten, bei der Benutzung auf die
      Sicherheit ihrer Kinder zu achten."
    m_Metadata:
      m_Items: []
  - m_Id: 51836280140939264
    m_Localized: '<b>Platzierung:</b> Bleibe auf einer Stelle und bewege die Kamera
      langsam hin und her, um die Gegend nach geeignetem Boden zu scannen. Auf diesen
      kannst du das Objekt platzieren.

      <b>Scan:</b> Suche in der Gegend nach
      dem Marker und scanne diesen mit der Kamera.'
    m_Metadata:
      m_Items: []
  - m_Id: 56879734105522176
    m_Localized: "Punkte und Troph\xE4en"
    m_Metadata:
      m_Items: []
  - m_Id: 56921672431124480
    m_Localized: "Du hast noch keine Troph\xE4en gesammelt!"
    m_Metadata:
      m_Items: []
  - m_Id: 57586894892384256
    m_Localized: "Weitere Eintr\xE4ge laden"
    m_Metadata:
      m_Items: []
  - m_Id: 20614071653449728
    m_Localized: Selfie
    m_Metadata:
      m_Items: []
  - m_Id: 62697099112169472
    m_Localized: "Wir konnten die Zusatzinhalte dieser Region nicht herunterladen.
      Du kannst auch ohne Download fortsetzen, nur k\xF6nnten einige Inhalte nicht
      korrekt angezeigt werden. Trotzdem fortfahren?"
    m_Metadata:
      m_Items: []
  - m_Id: 62733354000662528
    m_Localized: "Dieser Inhalt wurde noch nicht heruntergeladen. Bitte wechsle zur\xFCck
      zu dieser Region or starte die App neu, wenn du wieder Internet hast!"
    m_Metadata:
      m_Items: []
  - m_Id: 12796264136704
    m_Localized: "n\xE4chste Stempelstelle"
    m_Metadata:
      m_Items: []
  - m_Id: 7610099787317248
    m_Localized: "Dein Browser wird ge\xF6ffnet, um die Webseite zu sehen. Willst
      du fortfahren?"
    m_Metadata:
      m_Items: []
  - m_Id: 7610681210126336
    m_Localized: 'Ja

      (nicht erneut fragen)'
    m_Metadata:
      m_Items: []
  - m_Id: 7943586591490048
    m_Localized: "Gesammelte Troph\xE4en"
    m_Metadata:
      m_Items: []
  - m_Id: 10534130912018432
    m_Localized: Tour wechseln
    m_Metadata:
      m_Items: []
  - m_Id: 15201153524908032
    m_Localized: weiterlesen
    m_Metadata:
      m_Items: []
  - m_Id: 20613767394443264
    m_Localized: Info
    m_Metadata:
      m_Items: []
  - m_Id: 20613893991120896
    m_Localized: Web
    m_Metadata:
      m_Items: []
  - m_Id: 20613977612959744
    m_Localized: Telefon
    m_Metadata:
      m_Items: []
  - m_Id: 22414151217790976
    m_Localized: "Die Sprachauswahl beeinflusst haupts\xE4chlich die \xDCbersetzung
      der einzelnen Stempelstellen einer Region.\nAchtung: Nicht alle Regionen bieten
      alle \xDCbersetzungsm\xF6glichkeiten an!"
    m_Metadata:
      m_Items: []
  - m_Id: 43088885588639744
    m_Localized: Vorschau
    m_Metadata:
      m_Items: []
  - m_Id: 55862844348383232
    m_Localized: "Platze soviele Ballons wie m\xF6glich. Du hast {0} Sekunden Zeit."
    m_Metadata:
      m_Items: []
  - m_Id: 69620476091514880
    m_Localized: Kaufen und zu dieser Region wechseln
    m_Metadata:
      m_Items: []
  - m_Id: 70625929978134528
    m_Localized: Kauf fehlgeschlagen
    m_Metadata:
      m_Items: []
  - m_Id: 70628312216977408
    m_Localized: Kauf erfolgreich
    m_Metadata:
      m_Items: []
  - m_Id: 70637770460577792
    m_Localized: "Eine Internetverbindung wird ben\xF6tigt, um in die Region zu wechseln.
      Die Verbindung kann danach wieder deaktiviert werden."
    m_Metadata:
      m_Items: []
  - m_Id: 84479338820878336
    m_Localized: "Sponsor\t"
    m_Metadata:
      m_Items: []
  - m_Id: 117392374426451968
    m_Localized: "Die n\xE4chste Stempelstelle konnte nicht ermittelt werden. Es
      k\xF6nnte an der Standortermittlung liegen."
    m_Metadata:
      m_Items: []
  - m_Id: 117434899287719936
    m_Localized: Standort konnte nicht gefunden werden.
    m_Metadata:
      m_Items: []
  - m_Id: 118838435284205568
    m_Localized: "Diese Warnung f\xFCr diese Sitzung nicht mehr anzeigen?"
    m_Metadata:
      m_Items: []
  - m_Id: 118875963030716416
    m_Localized: "Die App hat keine Erlaubnis, auf die Kamera zuzugreifen. \xC4ndere
      es bitte in den Einstellungen, um die Funktion zu benutzen!"
    m_Metadata:
      m_Items: []
  - m_Id: 119606256704372736
    m_Localized: "Regionen Troph\xE4en"
    m_Metadata:
      m_Items: []
  - m_Id: 125414529210728448
    m_Localized: "Die volle Punktzahl (5) gibt es nur ohne Fehler -\xFCberlege gut
      \xFCber deine Antwort nach!"
    m_Metadata:
      m_Items: []
  - m_Id: 126497278289985536
    m_Localized: Community
    m_Metadata:
      m_Items: []
  - m_Id: 142731407801139200
    m_Localized: Bildbeschreibung
    m_Metadata:
      m_Items: []
  - m_Id: 143096790160719872
    m_Localized: Neuer Beitrag
    m_Metadata:
      m_Items: []
  - m_Id: 144953347005693952
    m_Localized: "Dein Beitrag wird \xFCberpr\xFCft bevor andere es sehen k\xF6nnen.
      Dies kann 1-3 Tage dauern."
    m_Metadata:
      m_Items: []
  - m_Id: 144953344795295744
    m_Localized: "M\xF6chtest du den Beitrag so abschicken?"
    m_Metadata:
      m_Items: []
  - m_Id: 149270463703891968
    m_Localized: Rangliste
    m_Metadata:
      m_Items: []
  - m_Id: 149307885309345792
    m_Localized: Registrieren
    m_Metadata:
      m_Items: []
  - m_Id: 149311062112944128
    m_Localized: Anmelden
    m_Metadata:
      m_Items: []
  - m_Id: 149341508146249728
    m_Localized: Speicherdaten synchronisieren
    m_Metadata:
      m_Items: []
  - m_Id: 156950489622593536
    m_Localized: 'Verwarnungen: {0}'
    m_Metadata:
      m_Items: []
  - m_Id: 156957280079134720
    m_Localized: "Du hast 3 oder mehrere Verwarnungen. Du kannst keine Beitr\xE4ge
      mehr erstellen."
    m_Metadata:
      m_Items: []
  - m_Id: 156957300610252800
    m_Localized: "Eine deiner Beitr\xE4ge verst\xF6\xDFt gegen die Regeln. Du hast
      insgesamt {0} Verwarnungen. Bei 3 oder mehr wirst du gebannt."
    m_Metadata:
      m_Items: []
  - m_Id: 160865351843135488
    m_Localized: "Zur\xFCck zum Stempelpass?"
    m_Metadata:
      m_Items: []
  - m_Id: 162336199477248000
    m_Localized: "M\xF6chtest du diesen Beitrag l\xF6schen? (Das l\xE4sst sich nicht
      r\xFCckg\xE4ngig machen)"
    m_Metadata:
      m_Items: []
  - m_Id: 165259576550572032
    m_Localized: 'Deine Community Punkte: '
    m_Metadata:
      m_Items: []
  - m_Id: 165281051009564672
    m_Localized: "Deine Beitr\xE4ge"
    m_Metadata:
      m_Items: []
  - m_Id: 165654215363346432
    m_Localized: "Das Bild kann nicht gr\xF6\xDFer als 5MB sein!"
    m_Metadata:
      m_Items: []
  - m_Id: 165654710840672256
    m_Localized: "Die ausgew\xE4hlte Datei wird nicht unterst\xFCtzt! Bitte w\xE4hle
      ein PNG oder JPG/JPEG aus."
    m_Metadata:
      m_Items: []
  - m_Id: 167098335294341120
    m_Localized: "Es gab einen Fehler beim Laden der Region. Versuche es sp\xE4ter
      erneut."
    m_Metadata:
      m_Items: []
  - m_Id: 170369364221444096
    m_Localized: Avatar speichern
    m_Metadata:
      m_Items: []
  - m_Id: 195284925015343104
    m_Localized: "Mehr Troph\xE4en laden"
    m_Metadata:
      m_Items: []
  - m_Id: 195337960068431872
    m_Localized: "Die Wegf\xFChrung ist derzeit nicht verf\xFCgbar. Wir bitten um
      Entschuldigung!"
    m_Metadata:
      m_Items: []
  references:
    version: 2
    RefIds: []
