%YAML 1.1
%TAG !u! tag:unity3d.com,2011:
--- !u!687078895 &4343727234628468602
SpriteAtlas:
  m_ObjectHideFlags: 0
  m_CorrespondingSourceObject: {fileID: 0}
  m_PrefabInstance: {fileID: 0}
  m_PrefabAsset: {fileID: 0}
  m_Name: 3_poi
  m_EditorData:
    serializedVersion: 2
    textureSettings:
      serializedVersion: 2
      anisoLevel: 1
      compressionQuality: 50
      maxTextureSize: 2048
      textureCompression: 0
      filterMode: 1
      generateMipMaps: 0
      readable: 0
      crunchedCompression: 0
      sRGB: 1
    platformSettings:
    - serializedVersion: 3
      m_BuildTarget: DefaultTexturePlatform
      m_MaxTextureSize: 2048
      m_ResizeAlgorithm: 0
      m_TextureFormat: -1
      m_TextureCompression: 1
      m_CompressionQuality: 50
      m_CrunchedCompression: 1
      m_AllowsAlphaSplitting: 0
      m_Overridden: 0
      m_AndroidETC2FallbackOverride: 0
      m_ForceMaximumCompressionQuality_BC6H_BC7: 0
    packingSettings:
      serializedVersion: 2
      padding: 4
      blockOffset: 1
      allowAlphaSplitting: 0
      enableRotation: 1
      enableTightPacking: 1
      enableAlphaDilation: 0
    secondaryTextureSettings: {}
    variantMultiplier: 1
    packables:
    - {fileID: 2800000, guid: 96f17751303fc37459518ba427fd10ba, type: 3}
    - {fileID: 2800000, guid: d3448d4c8a52d534e83dba049077dd9a, type: 3}
    - {fileID: 2800000, guid: 7f6e7643a664cbe4f88cd5ade8a9938e, type: 3}
    - {fileID: 2800000, guid: c96329ddee0002f4b8439f21461c1aa0, type: 3}
    - {fileID: 2800000, guid: b0f95a52d283c51488f47256b09e7952, type: 3}
    - {fileID: 2800000, guid: be2a3dca74ad7eb4787ffba766f7553a, type: 3}
    - {fileID: 2800000, guid: d94383f4b1d8ef74fbc24971442dc696, type: 3}
    - {fileID: 2800000, guid: f1a6f5864978ebf489a1fff17bb14f71, type: 3}
    - {fileID: 2800000, guid: 735ced2d6e870854db76aa8bd87af8b0, type: 3}
    - {fileID: 2800000, guid: 31a0ae1172c915a4e85f958fff3932ee, type: 3}
    - {fileID: 2800000, guid: 493d36b091d9d7247a0d2919dd82ec97, type: 3}
    - {fileID: 2800000, guid: 59eb21da8b1eec442950ddd1fe59150b, type: 3}
    - {fileID: 2800000, guid: bab84383b9c12bf45b83affe4a8b8c79, type: 3}
    - {fileID: 2800000, guid: c3c45da0d91c05e44b786d9ca71dce54, type: 3}
    - {fileID: 2800000, guid: 7ad92b15fdace5442bc5ec8766bc5ca4, type: 3}
    - {fileID: 2800000, guid: 593b3008fd478a649a2677c1e790f993, type: 3}
    bindAsDefault: 0
    isAtlasV2: 0
    cachedData: {fileID: 0}
  m_MasterAtlas: {fileID: 0}
  m_PackedSprites:
  - {fileID: 21300000, guid: c3c45da0d91c05e44b786d9ca71dce54, type: 3}
  - {fileID: 21300000, guid: 493d36b091d9d7247a0d2919dd82ec97, type: 3}
  - {fileID: 21300000, guid: 31a0ae1172c915a4e85f958fff3932ee, type: 3}
  - {fileID: 21300000, guid: 96f17751303fc37459518ba427fd10ba, type: 3}
  - {fileID: 21300000, guid: b0f95a52d283c51488f47256b09e7952, type: 3}
  - {fileID: 21300000, guid: 7f6e7643a664cbe4f88cd5ade8a9938e, type: 3}
  - {fileID: 21300000, guid: bab84383b9c12bf45b83affe4a8b8c79, type: 3}
  - {fileID: 21300000, guid: d94383f4b1d8ef74fbc24971442dc696, type: 3}
  - {fileID: 21300000, guid: 7ad92b15fdace5442bc5ec8766bc5ca4, type: 3}
  - {fileID: 21300000, guid: f1a6f5864978ebf489a1fff17bb14f71, type: 3}
  - {fileID: 21300000, guid: 593b3008fd478a649a2677c1e790f993, type: 3}
  - {fileID: 21300000, guid: be2a3dca74ad7eb4787ffba766f7553a, type: 3}
  - {fileID: 21300000, guid: 59eb21da8b1eec442950ddd1fe59150b, type: 3}
  - {fileID: 21300000, guid: d3448d4c8a52d534e83dba049077dd9a, type: 3}
  - {fileID: 21300000, guid: 735ced2d6e870854db76aa8bd87af8b0, type: 3}
  - {fileID: 21300000, guid: c96329ddee0002f4b8439f21461c1aa0, type: 3}
  m_PackedSpriteNamesToIndex:
  - senkenberg
  - ezb2
  - boerse
  - 64
  - 69
  - 66
  - palmengarten
  - 72
  - staedel
  - 73
  - zeil
  - 71
  - luftbruecke
  - 65
  - zoo
  - 67
  m_RenderDataMap: {}
  m_Tag: 3_poi
  m_IsVariant: 0
