%YAML 1.1
%TAG !u! tag:unity3d.com,2011:
--- !u!114 &11400000
MonoBehaviour:
  m_ObjectHideFlags: 0
  m_CorrespondingSourceObject: {fileID: 0}
  m_PrefabInstance: {fileID: 0}
  m_PrefabAsset: {fileID: 0}
  m_GameObject: {fileID: 0}
  m_Enabled: 1
  m_EditorHideFlags: 0
  m_Script: {fileID: 11500000, guid: e9620f8c34305754d8cc9a7e49e852d9, type: 3}
  m_Name: Info_zh
  m_EditorClassIdentifier: 
  m_LocaleId:
    m_Code: zh
  m_SharedData: {fileID: 11400000, guid: b6f0efb61f94ba54287f5fc04a7be810, type: 2}
  m_Metadata:
    m_Items: []
  m_TableData:
  - m_Id: 43671568384
    m_Localized: Stempelpass
    m_Metadata:
      m_Items: []
  - m_Id: 137607200768
    m_Localized: Stempelpass
    m_Metadata:
      m_Items: []
  - m_Id: 335574155264
    m_Localized: The camera will be used for augmented reality purposes and for taking
      pictures.
    m_Metadata:
      m_Items: []
  - m_Id: 609600618496
    m_Localized: Your location will be used to unlock nearby Point of Views.
    m_Metadata:
      m_Items: []
  - m_Id: 389722619904
    m_Localized: No mic
    m_Metadata:
      m_Items: []
  - m_Id: 25043262226513920
    m_Localized: If you have placed an object but are not happy with its position,
      you can reposition it by going into "Edit Mode" via this button.
    m_Metadata:
      m_Items: []
  - m_Id: 25054135791861760
    m_Localized: You can now tap on the desired object to change, as long as you
      are not currently trying to place one. Move it around and tap on it again to
      place it.
    m_Metadata:
      m_Items: []
  - m_Id: 25054682838155264
    m_Localized: If you do not need the object anymore, you can remove it via this
      button.
    m_Metadata:
      m_Items: []
  references:
    version: 2
    RefIds: []
